{
  "count": 3,
  "next": null,
  "previous": null,
  "results": [
    {
      "id": 4,
      "chapter": null,
      "nr_files": 0,
      "zones": [
        {
          "id": 7,
          "name": "Ancillary"
        }
      ],
      "name": "Study 3",
      "date_created": "2022-10-30T16:43:30.293000+01:00",
      "date_modified": "2022-10-30T16:43:30.293000+01:00",
      "published": true
    },
    {
      "id": 3,
      "chapter": {
        "id": 2,
        "name": "Obstructions"
      },
      "nr_files": 12,
      "zones": [
        {
          "id": 10,
          "name": "Doordewind"
        }
      ],
      "name": "Study 2",
      "date_created": "2022-10-30T16:43:30.292000+01:00",
      "date_modified": "2022-10-30T16:43:30.292000+01:00",
      "published": true
    },
    {
      "id": 2,
      "chapter": {
        "id": 1,
        "name": "General Information"
      },
      "nr_files": 28,
      "zones": [
        {
          "id": 7,
          "name": "Ancillary"
        },
        {
          "id": 2,
          "name": "Hollandse Kust (noord)"
        }
      ],
      "name": "Geotechnical investigations HKN",
      "date_created": "2022-10-30T16:43:30.289000+01:00",
      "date_modified": "2022-10-30T16:43:30.289000+01:00",
      "published": true
    }
  ]
}
